Wrangling 2: Joins
…
ℹ Use `spec()` to retrieve the full column specification for this data.
ℹ Specify the column types or set `show_col_types = FALSE` to quiet this message.

Example 1: Join by Station Name

left_join(rides, stops, by = c("stationname" = "station_name"))

Warning in left_join(rides, stops, by = c(stationname = "station_name")): Detected an unexpected many-to-many relationship between `x` and `y`.
ℹ Row 1 of `x` matches multiple rows in `y`.
ℹ Row 289 of `y` matches multiple rows in `x`.
ℹ If a many-to-many relationship is expected, set `relationship =
  "many-to-many"` to silence this warning.

# A tibble: 12,225,194 × 8
   station_id stationname    date       daytype rides stop_id line  value
   <chr>      <chr>          <chr>      <chr>   <dbl> <chr>   <chr> <lgl>
 1 41280      Jefferson Park 12/22/2017 W        6104 30248   red   FALSE
 2 41280      Jefferson Park 12/22/2017 W        6104 30248   blue  TRUE 
 3 41280      Jefferson Park 12/22/2017 W        6104 30248   g     FALSE
 4 41280      Jefferson Park 12/22/2017 W        6104 30248   brn   FALSE
 5 41280      Jefferson Park 12/22/2017 W        6104 30248   p     FALSE
 6 41280      Jefferson Park 12/22/2017 W        6104 30248   pexp  FALSE
 7 41280      Jefferson Park 12/22/2017 W        6104 30248   y     FALSE
 8 41280      Jefferson Park 12/22/2017 W        6104 30248   pnk   FALSE
 9 41280      Jefferson Park 12/22/2017 W        6104 30248   o     FALSE
10 41280      Jefferson Park 12/22/2017 W        6104 30247   red   FALSE
# ℹ 12,225,184 more rows

What happens when names don’t match exactly? Why might that cause issues?

Example 2: Join by Station ID

left_join(rides, stops, by = c("station_id" = "stop_id"))

# A tibble: 1,228,271 × 8
   station_id stationname           date  daytype rides station_name line  value
   <chr>      <chr>                 <chr> <chr>   <dbl> <chr>        <chr> <lgl>
 1 41280      Jefferson Park        12/2… W        6104 <NA>         <NA>  NA   
 2 41000      Cermak-Chinatown      12/1… W        3636 <NA>         <NA>  NA   
 3 40280      Central-Lake          12/0… A        1270 <NA>         <NA>  NA   
 4 40140      Dempster-Skokie       12/1… W        1759 <NA>         <NA>  NA   
 5 40690      Dempster              12/0… U         499 <NA>         <NA>  NA   
 6 41660      Lake/State            12/3… A        8615 <NA>         <NA>  NA   
 7 40180      Oak Park-Forest Park  12/1… U         442 <NA>         <NA>  NA   
 8 40250      Kedzie-Homan-Forest … 12/0… A        1353 <NA>         <NA>  NA   
 9 40120      35th/Archer           12/0… W        3353 <NA>         <NA>  NA   
10 41420      Addison-North Main    12/1… W        6034 <NA>         <NA>  NA   
# ℹ 1,228,261 more rows
…
Why do the results differ? Which join preserves all ridership data?

Troubleshooting and Best Practices

Mismatched Column Names

left_join(rides, stops, by = c("stationname" = "station_name"))

Warning in left_join(rides, stops, by = c(stationname = "station_name")): Detected an unexpected many-to-many relationship between `x` and `y`.
ℹ Row 1 of `x` matches multiple rows in `y`.
ℹ Row 289 of `y` matches multiple rows in `x`.
ℹ If a many-to-many relationship is expected, set `relationship =
  "many-to-many"` to silence this warning.

# A tibble: 12,225,194 × 8
   station_id stationname    date       daytype rides stop_id line  value
   <chr>      <chr>          <chr>      <chr>   <dbl> <chr>   <chr> <lgl>
 1 41280      Jefferson Park 12/22/2017 W        6104 30248   red   FALSE
 2 41280      Jefferson Park 12/22/2017 W        6104 30248   blue  TRUE 
 3 41280      Jefferson Park 12/22/2017 W        6104 30248   g     FALSE
 4 41280      Jefferson Park 12/22/2017 W        6104 30248   brn   FALSE
 5 41280      Jefferson Park 12/22/2017 W        6104 30248   p     FALSE
 6 41280      Jefferson Park 12/22/2017 W        6104 30248   pexp  FALSE
 7 41280      Jefferson Park 12/22/2017 W        6104 30248   y     FALSE
 8 41280      Jefferson Park 12/22/2017 W        6104 30248   pnk   FALSE
 9 41280      Jefferson Park 12/22/2017 W        6104 30248   o     FALSE
10 41280      Jefferson Park 12/22/2017 W        6104 30247   red   FALSE
# ℹ 12,225,184 more rows

Duplicate Keys

If there are duplicate keys, rows can multiply unexpectedly.

Checking for Missing Matches

anti_join(rides, stops, by = c("stationname" = "station_name"))

# A tibble: 636,146 × 5
   station_id stationname              date       daytype rides
   <chr>      <chr>                    <chr>      <chr>   <dbl>
 1 40280      Central-Lake             12/02/2017 A        1270
 2 41660      Lake/State               12/30/2017 A        8615
 3 40180      Oak Park-Forest Park     12/17/2017 U         442
 4 40250      Kedzie-Homan-Forest Park 12/02/2017 A        1353
 5 41420      Addison-North Main       12/19/2017 W        6034
 6 41450      Chicago/State            12/27/2017 W        9639
 7 40010      Austin-Forest Park       12/03/2017 U         641
 8 41160      Clinton-Lake             12/31/2017 U         621
 9 40720      East 63rd-Cottage Grove  12/26/2017 W         613
10 40330      Grand/State              12/21/2017 W       10683
# ℹ 636,136 more rows
…
